Climate analysis Las Cruces
…
List unusual values

Data %>% filter(TempMax > 40)

## # A tibble: 1 x 8
##   Date                Temperature TempMax TempMin Humidity Rainfall day       
##   <dttm>                    <dbl>   <dbl>   <dbl>    <dbl>    <dbl> <date>    
## 1 2014-06-11 11:30:00        22.7    223.    22.3     82.3        0 2014-06-11
## #  with 1 more variable: n.complete <dbl>

Data %>% filter(TempMax < 0)

## # A tibble: 139 x 8
##    Date                Temperature TempMax TempMin Humidity Rainfall day       
##    <dttm>                    <dbl>   <dbl>   <dbl>    <dbl>    <dbl> <date>    
##  1 2016-03-03 11:30:00       -99     -99     -99      51.5     0     2016-03-03
##  2 2016-03-03 11:00:00       -99     -99     -99     -99       0     2016-03-03
##  3 2016-03-03 10:30:00       -99     -99     -99     -99       0     2016-03-03
##  4 2016-03-03 10:00:00       -99     -99     -99     -99       0     2016-03-03
##  5 2016-03-03 09:30:00       -99     -99     -99     -99       0     2016-03-03
##  6 2016-03-03 09:00:00       -99     -99     -99      29.8     0     2016-03-03
##  7 2017-12-04 14:30:00       -79.2   -79.0   -79.3     0.54    0     2017-12-04
##  8 2017-12-04 14:00:00       -79.2   -79.0   -79.3     0.53    0.254 2017-12-04
##  9 2017-12-04 13:45:00       -79.2   -79.0   -79.3     0.53    0     2017-12-04
## 10 2017-12-04 13:30:00       -79.2   -79.0   -79.3     0.53    0     2017-12-04
## #  with 129 more rows, and 1 more variable: n.complete <dbl>

Data %>% filter(Temperature < 0)

## # A tibble: 154 x 8
##    Date                Temperature TempMax TempMin Humidity Rainfall day       
##    <dttm>                    <dbl>   <dbl>   <dbl>    <dbl>    <dbl> <date>    
##  1 2016-03-03 11:30:00       -99     -99     -99      51.5     0     2016-03-03
##  2 2016-03-03 11:00:00       -99     -99     -99     -99       0     2016-03-03
##  3 2016-03-03 10:30:00       -99     -99     -99     -99       0     2016-03-03
##  4 2016-03-03 10:00:00       -99     -99     -99     -99       0     2016-03-03
##  5 2016-03-03 09:30:00       -99     -99     -99     -99       0     2016-03-03
##  6 2016-03-03 09:00:00       -99     -99     -99      29.8     0     2016-03-03
##  7 2017-12-04 14:30:00       -79.2   -79.0   -79.3     0.54    0     2017-12-04
##  8 2017-12-04 14:00:00       -79.2   -79.0   -79.3     0.53    0.254 2017-12-04
##  9 2017-12-04 13:45:00       -79.2   -79.0   -79.3     0.53    0     2017-12-04
## 10 2017-12-04 13:30:00       -79.2   -79.0   -79.3     0.53    0     2017-12-04
## #  with 144 more rows, and 1 more variable: n.complete <dbl>

Data %>% filter(TempMin < 0)

## # A tibble: 159 x 8
##    Date                Temperature TempMax TempMin Humidity Rainfall day       
##    <dttm>                    <dbl>   <dbl>   <dbl>    <dbl>    <dbl> <date>    
##  1 2016-03-03 11:30:00       -99     -99     -99      51.5     0     2016-03-03
##  2 2016-03-03 11:00:00       -99     -99     -99     -99       0     2016-03-03
##  3 2016-03-03 10:30:00       -99     -99     -99     -99       0     2016-03-03
##  4 2016-03-03 10:00:00       -99     -99     -99     -99       0     2016-03-03
##  5 2016-03-03 09:30:00       -99     -99     -99     -99       0     2016-03-03
##  6 2016-03-03 09:00:00       -99     -99     -99      29.8     0     2016-03-03
##  7 2017-06-08 17:00:00        17.6    18.3   -79.4    98.5     1.02  2017-06-08
##  8 2017-12-04 14:30:00       -79.2   -79.0   -79.3     0.54    0     2017-12-04
##  9 2017-12-04 14:00:00       -79.2   -79.0   -79.3     0.53    0.254 2017-12-04
## 10 2017-12-04 13:45:00       -79.2   -79.0   -79.3     0.53    0     2017-12-04
## #  with 149 more rows, and 1 more variable: n.complete <dbl>
…
quarterly_data <- daily_data %>% 
  group_by(quarter) %>% # group by the quarter column
  summarise(n=n(),n.incomplete = sum(incomplete), 
            total_precip=sum(total_precip), 
            mean_temp=mean(mean_temp),
            mean_max_temp = mean(max_temp),
            mean_min_temp = mean(min_temp),
            mean_humid=mean(mean_humid),
            mean_min_humid=min(min_humid)) 

quarterly_data <- quarterly_data %>% mutate(quarter_noYear = substr(quarter, 6,7))

quarterly_data

## # A tibble: 48 x 10
##    quarter     n n.incomplete total_precip mean_temp mean_max_temp mean_min_temp
##    <yearq> <int>        <int>        <dbl>     <dbl>         <dbl>         <dbl>
##  1 2008 Q4    92            2        1258.      18.8          23.3          16.6
##  2 2009 Q1    90            0         123.      19.7          25.8          16.3
##  3 2009 Q2    91            0         787.      19.9          25.1          17.4
##  4 2009 Q3    92            0        1196.      19.9          24.8          17.5
##  5 2009 Q4    92            0         955.      19.4          24.2          17.3
##  6 2010 Q1    90            0         197.      20.8          26.9          17.6
##  7 2010 Q2    91            0        1253.      20.2          25.1          17.8
##  8 2010 Q3    92            0        1955.      19.0          23.8          16.9
##  9 2010 Q4    92            0        1537.      18.5          22.7          16.5
## 10 2011 Q1    90            0         366.      19.2          24.7          16.1
## #  with 38 more rows, and 3 more variables: mean_humid <dbl>,
## #   mean_min_humid <dbl>, quarter_noYear <chr>
…
